Applying Text Analysis to Twitter data usig R
…
  # tokenize the tweets
  tidytext::unnest_tokens("word", text) %>%

  # remove stop words
  # note: choose between stop_words or custom_stopwords
  anti_join(tidytext::stop_words, by = "word")

4.2 Assessing word frequency

What are the most common words in our data?

tidy_data %>% 
  count(word, sort = TRUE)

## # A tibble: 65,340 x 2
##    word            n
##    <chr>       <int>
##  1 covid       56776
##  2 job         24748
##  3 coronavirus 13480
##  4 people      12453
##  5 pandemic     9524
##  6 home         5877
##  7 time         5345
##  8 due          5157
##  9 trump        3321
## 10 health       3231
## #  with 65,330 more rows
…
